{
    "/js/app.js": "/js/app.js",
    "/css/app.css": "/css/app.css",
    "/js/limitless.js": "/js/limitless.js",
    "/js/bootstrap.js": "/js/bootstrap.js",
    "/js/plugins.js": "/js/plugins.js",
    "/css/bootstrap.css": "/css/bootstrap.css",
    "/css/carousel.css": "/css/carousel.css",
    "/css/magnific-popup.css": "/css/magnific-popup.css",
    "/css/animate.css": "/css/animate.css",
    "/css/landing.css": "/css/landing.css",
    "/css/limitless.css": "/css/limitless.css"
}
